﻿
jhp1117 박지홍 21 여 88 4 23 7 52 39 71 28 9 30 49 0
lse_lse 이상의 21 남 12 39 28 73 94 38 40 0
101cys 최윤석 24 남 83 92 38 47 82 3 81 49 73 100 0
kjp07 김진표 21 남 47 29 37 19 3 82 98 37 12 3 0
8878kyonggi 김연우 42 남 12 39 28 39 47 83 12 39 10 4 0
1234qwer 이은미 33 여 39 27 39 47 93 5 0